{
  "name": "atlassian-bamboo_rest",
  "version": "1.3.1",
  "summary": "Manage Bamboo resources through a REST interface",
  "author": "Atlassian",
  "description": "Manage Bamboo configuration through a REST interface",
  "dependencies": [],
  "tags": ["atlassian", "bamboo", "rest"],
  "operatingsystem_support": [
    {
      "operatingsystem": "Ubuntu",
      "operatingsystemrelease": [ "12.04", "14.04", "16.04" ]
    }
  ],
  "requirements": [
    {
      "name": "puppet",
      "version_requirement": ">= 3.5"
    }
  ],
  "source": "https://bitbucket.org/atlassian/atlassian-bamboo_rest.git",
  "project_page": "https://bitbucket.org/atlassian/atlassian-bamboo_rest",
  "issues_url": "https://bitbucket.org/atlassian/atlassian-bamboo_rest/issues?status=new&status=open",
  "license": "Apache-2.0"
}
